<svg width="41" height="56" viewBox="0 0 41 56" fill="none" xmlns="http://www.w3.org/2000/svg">
<circle opacity="0.4" cx="20" cy="51" r="5" fill="#252525"/>
<circle opacity="0.7" cx="20" cy="51" r="3" fill="#252525"/>
<mask id="mask0_2599_10973" style="mask-type:alpha" maskUnits="userSpaceOnUse" x="0" y="0" width="41" height="41">
<circle cx="20.5" cy="20.5" r="20.5" fill="#D9D9D9"/>
</mask>
<g mask="url(#mask0_2599_10973)">
<circle cx="20.5" cy="20.5" r="20.5" fill="#252525"/>
<g clipPath="url(#clip0_2599_10973)">
<path fillRule="evenodd" clipRule="evenodd" d="M42.5833 25.9013V32.1403L39.2069 31.0415L36.9526 30.3089L34.5409 29.5234L31.9464 28.681L29.1488 27.7693L19.4765 24.6234L19.4359 24.6112C19.2481 24.5501 19.0602 24.4932 18.8723 24.4402C18.3067 24.2824 17.7282 24.1559 17.141 24.0617C16.943 24.0333 16.75 24.0048 16.5571 23.9844C16.2524 23.9478 15.9529 23.9234 15.6482 23.9071C15.2326 23.8834 14.8156 23.8779 14.3992 23.8908H14.2926C14.2774 23.8908 14.2621 23.8949 14.2469 23.8949C14.12 23.8989 13.9981 23.903 13.8712 23.9111C13.8575 23.9105 13.8437 23.9119 13.8306 23.9152C13.6986 23.9193 13.5666 23.9315 13.4345 23.9437H13.4295C13.3936 23.9458 13.358 23.9499 13.3228 23.9559C13.2061 23.9641 13.0842 23.9763 12.9624 23.9925C12.9471 23.9966 12.9268 23.9966 12.9116 24.0007C12.8253 24.0129 12.739 24.021 12.6526 24.0332C12.612 24.0373 12.5765 24.0455 12.5359 24.0495C12.493 24.0539 12.4506 24.0607 12.4089 24.0699C12.282 24.0861 12.1601 24.1106 12.0332 24.135C12.0281 24.135 12.0231 24.139 12.018 24.139C11.891 24.1594 11.7641 24.1879 11.6423 24.2123C11.6016 24.2204 11.5661 24.2286 11.5255 24.2367C11.4493 24.253 11.3732 24.2693 11.297 24.2896C11.2056 24.31 11.1142 24.3344 11.0228 24.3588C10.906 24.3873 10.7893 24.4158 10.6775 24.4483C10.648 24.4596 10.6174 24.4691 10.5862 24.4768C10.4694 24.5135 10.3526 24.546 10.2409 24.5826C9.83354 24.7117 9.43524 24.8585 9.04773 25.0222C8.94618 25.0629 8.84971 25.1077 8.74817 25.1524C8.70755 25.1687 8.66185 25.189 8.62123 25.2094C8.52984 25.2542 8.44353 25.2948 8.35214 25.3437L8.29121 25.3681C8.28613 25.3722 8.27598 25.3762 8.27598 25.3803L8.25567 25.3884L8.06273 25.4861C7.95103 25.5431 7.84441 25.6001 7.73778 25.6611L0 29.967V23.2274L7.08791 18.5187C7.24531 18.4169 7.40271 18.3193 7.56518 18.2257C7.66673 18.1605 7.77335 18.0954 7.87997 18.0344C8.01704 17.9611 8.15413 17.8879 8.29123 17.8146C8.29818 17.8095 8.30721 17.8066 8.31662 17.8065C8.40801 17.7576 8.50448 17.7088 8.60095 17.6599C8.64157 17.6396 8.68726 17.6192 8.72788 17.5989C8.77358 17.5786 8.8142 17.5582 8.85482 17.5419C8.89543 17.5216 8.93605 17.5012 8.97667 17.4849C9.1036 17.428 9.23054 17.371 9.36255 17.3222C9.51994 17.257 9.67734 17.1919 9.84489 17.1349C9.98705 17.082 10.1241 17.0332 10.2714 16.9844C10.3374 16.9599 10.4034 16.9396 10.4694 16.9192C10.576 16.8867 10.6776 16.8541 10.7842 16.8216C10.835 16.8094 10.8807 16.7971 10.9314 16.7809C11.0177 16.7565 11.1041 16.732 11.1904 16.7117C11.2183 16.7074 11.2456 16.7005 11.2716 16.6913C11.3325 16.6751 11.3935 16.6588 11.4595 16.6466C11.9561 16.5281 12.4614 16.4343 12.9725 16.3657C13.0893 16.3454 13.2061 16.3332 13.3279 16.321C13.4142 16.3128 13.4955 16.3047 13.5716 16.2966C13.6376 16.2884 13.7036 16.2844 13.7646 16.2803C13.8509 16.2721 13.9423 16.264 14.0286 16.2599H14.0387C14.1301 16.2559 14.2266 16.2477 14.318 16.2477C14.5414 16.2355 14.7699 16.2314 14.9933 16.2314C15.1761 16.2314 15.3538 16.2314 15.5315 16.2396C15.699 16.2477 15.8666 16.2559 16.0291 16.264C16.1103 16.2721 16.1915 16.2762 16.2728 16.2844C16.3946 16.2966 16.5216 16.3047 16.6434 16.321C16.8618 16.3454 17.0801 16.3698 17.2984 16.4064C17.4507 16.4268 17.598 16.4512 17.7452 16.4797C17.7828 16.485 17.8201 16.4918 17.8569 16.5001C18.0245 16.5326 18.1869 16.5692 18.3494 16.6059C18.5068 16.6425 18.6642 16.6791 18.8216 16.7239L19.0145 16.7727C19.1516 16.8094 19.2887 16.8501 19.4258 16.8908L19.4766 16.907C19.6187 16.9518 19.7609 17.0006 19.9031 17.0495C20.0706 17.1105 20.2382 17.1675 20.4057 17.2326L31.9464 21.742L34.5409 22.7594L42.5833 25.9013Z" fill="#252525"/>
<path fillRule="evenodd" clipRule="evenodd" d="M42.5833 37.8993V44L34.5409 42.4413L31.9464 41.9366L19.4765 39.5232L17.1511 39.0715C14.6073 38.5751 11.9323 38.7419 9.51486 39.5476L8.29123 39.9546L0 42.7058V36.2022L8.29123 32.6005L8.54002 32.4906C10.0274 31.8456 11.6613 31.447 13.3447 31.3183C15.0281 31.1897 16.7266 31.3337 18.3392 31.7417L19.4765 32.0307L29.1488 34.4848L31.9464 35.197L34.5409 35.8563L36.9526 36.4668L42.5833 37.8993Z" fill="#252525"/>
<path fillRule="evenodd" clipRule="evenodd" d="M42.5833 32.1403V37.8991L36.9526 36.4665L34.5409 35.856L31.9464 35.1967L29.1488 34.4845L19.4765 32.0304L18.3392 31.7415C16.7266 31.3334 15.0281 31.1894 13.3447 31.3181C11.6613 31.4467 10.0274 31.8454 8.54002 32.4903L8.29123 32.6002L0 36.202V29.967L7.73781 25.6612C7.84443 25.6001 7.95106 25.5432 8.06276 25.4862L8.25569 25.3885L8.276 25.3803C8.276 25.3763 8.28616 25.3722 8.29123 25.3681L8.35216 25.3437C8.44355 25.2949 8.52987 25.2542 8.62126 25.2094C8.66188 25.1891 8.70757 25.1687 8.74819 25.1524C8.84974 25.1077 8.94621 25.0629 9.04775 25.0222C9.43526 24.8585 9.83357 24.7118 10.2409 24.5827C10.3526 24.546 10.4694 24.5135 10.5862 24.4769C10.6175 24.4691 10.648 24.4596 10.6776 24.4484C10.7893 24.4158 10.906 24.3873 11.0228 24.3588C11.1142 24.3344 11.2056 24.31 11.297 24.2896C11.3732 24.2693 11.4493 24.253 11.5255 24.2368C11.5661 24.2286 11.6017 24.2205 11.6423 24.2123C11.7641 24.1879 11.8911 24.1594 12.018 24.1391C12.0231 24.1391 12.0282 24.135 12.0332 24.135C12.1602 24.1106 12.282 24.0862 12.409 24.0699C12.4506 24.0608 12.493 24.054 12.5359 24.0496C12.5765 24.0455 12.612 24.0373 12.6527 24.0333C12.739 24.0211 12.8253 24.0129 12.9116 24.0007C12.9268 23.9966 12.9471 23.9966 12.9624 23.9926C13.0843 23.9763 13.2061 23.9641 13.3229 23.9559C13.358 23.9499 13.3936 23.9458 13.4295 23.9437H13.4346C13.5666 23.9315 13.6986 23.9193 13.8306 23.9152C13.8437 23.9119 13.8575 23.9105 13.8712 23.9112C13.9981 23.903 14.12 23.899 14.2469 23.8949C14.2622 23.8949 14.2774 23.8908 14.2926 23.8908H14.3993C14.8157 23.8779 15.2326 23.8834 15.6483 23.9071C15.9529 23.9234 16.2525 23.9478 16.5571 23.9844C16.75 24.0048 16.943 24.0333 17.141 24.0618C17.7283 24.1559 18.3068 24.2824 18.8724 24.4403C19.0602 24.4932 19.2481 24.5501 19.4359 24.6112L19.4766 24.6234L29.1488 27.7694L31.9464 28.681L34.5409 29.5235L36.9526 30.3089L39.207 31.0415L42.5833 32.1403Z" fill="#B6F501"/>
<path d="M42.5833 22.1938V25.9014L34.5409 22.7595L31.9464 21.742L20.4057 17.2327C20.2381 17.1676 20.0706 17.1106 19.903 17.0495C19.7609 17.0007 19.6187 16.9519 19.4765 16.9071L19.4258 16.8908C19.2887 16.8501 19.1516 16.8094 19.0145 16.7728L18.8216 16.7239C18.6642 16.6792 18.5068 16.6426 18.3494 16.6059C18.1869 16.5693 18.0244 16.5326 17.8569 16.5001C17.8201 16.4918 17.7828 16.485 17.7452 16.4798C17.5979 16.4513 17.4507 16.4269 17.2984 16.4065C17.08 16.3699 16.8617 16.3455 16.6434 16.321C16.5215 16.3048 16.3946 16.2966 16.2728 16.2844C16.1915 16.2763 16.1103 16.2722 16.029 16.2641C15.8666 16.2559 15.699 16.2478 15.5315 16.2396C15.3538 16.2315 15.1761 16.2315 14.9932 16.2315C14.7699 16.2315 14.5414 16.2356 14.318 16.2478C14.2266 16.2478 14.1301 16.2559 14.0387 16.26H14.0286C13.9422 16.2641 13.8509 16.2722 13.7645 16.2803C13.7036 16.2844 13.6376 16.2885 13.5716 16.2966C13.4955 16.3047 13.4142 16.3129 13.3279 16.321C13.206 16.3332 13.0893 16.3455 12.9725 16.3658C12.4614 16.4344 11.9561 16.5281 11.4594 16.6466C11.3934 16.6588 11.3325 16.6751 11.2716 16.6914C11.2455 16.7006 11.2183 16.7074 11.1903 16.7117C11.104 16.7321 11.0177 16.7565 10.9314 16.7809C10.8806 16.7972 10.835 16.8094 10.7842 16.8216C10.6775 16.8542 10.576 16.8867 10.4694 16.9193C10.4034 16.9396 10.3374 16.96 10.2714 16.9844C10.1241 17.0333 9.98702 17.0821 9.84486 17.135C9.67731 17.192 9.51991 17.2571 9.36252 17.3222C9.23051 17.371 9.10357 17.428 8.97664 17.485C8.93602 17.5013 8.8954 17.5216 8.85478 17.542C8.81417 17.5583 8.77355 17.5786 8.72785 17.599C8.68723 17.6193 8.64154 17.6397 8.60092 17.66C8.50445 17.7088 8.40798 17.7577 8.31659 17.8065C8.30718 17.8067 8.29815 17.8096 8.2912 17.8147C8.15412 17.8879 8.01703 17.9612 7.87994 18.0344C7.77332 18.0955 7.6667 18.1606 7.56515 18.2257C7.40268 18.3193 7.24528 18.417 7.08788 18.5187L0 23.2275V18.4984C0.00111542 17.9671 0.135654 17.4414 0.395597 16.9526C0.655541 16.4639 1.03557 16.0221 1.51304 15.6536L6.55987 11.7751C7.09629 11.3657 7.67554 10.994 8.29123 10.664C9.92247 9.79865 11.7842 9.25213 13.7268 9.06836C15.6695 8.88458 17.6388 9.06868 19.4765 9.60585C20.1026 9.79436 20.7102 10.0202 21.2942 10.2814L29.1488 13.8262L31.9464 15.0919L40.0802 18.7629C40.8399 19.1051 41.4722 19.6033 41.9121 20.2063C42.352 20.8093 42.5837 21.4952 42.5833 22.1938V22.1938Z" fill="#B6F501"/>
<path d="M42.5833 43.9999H0V42.7057L8.29123 39.9546L9.51486 39.5476C11.9323 38.7419 14.6073 38.5751 17.1511 39.0714L19.4765 39.5232L31.9464 41.9365L34.5409 42.4412L42.5833 43.9999Z" fill="#B6F501"/>
</g>
</g>
<defs>
<clipPath id="clip0_2599_10973">
<rect width="42.5833" height="35" fill="white" transform="translate(0 9)"/>
</clipPath>
</defs>
</svg>
