<svg width="18" height="18" viewBox="0 0 18 18" fill="none" xmlns="http://www.w3.org/2000/svg">
<path d="M4.83317 4.00033H3.99984V1.50033C3.99984 1.27931 3.91204 1.06735 3.75576 0.91107C3.59948 0.75479 3.38752 0.666992 3.1665 0.666992C2.94549 0.666992 2.73353 0.75479 2.57725 0.91107C2.42097 1.06735 2.33317 1.27931 2.33317 1.50033V4.00033H1.49984C1.27882 4.00033 1.06686 4.08812 0.910582 4.2444C0.754301 4.40068 0.666504 4.61265 0.666504 4.83366C0.666504 5.05467 0.754301 5.26663 0.910582 5.42291C1.06686 5.5792 1.27882 5.66699 1.49984 5.66699H4.83317C5.05418 5.66699 5.26615 5.5792 5.42243 5.42291C5.57871 5.26663 5.6665 5.05467 5.6665 4.83366C5.6665 4.61265 5.57871 4.40068 5.42243 4.2444C5.26615 4.08812 5.05418 4.00033 4.83317 4.00033ZM3.1665 7.33366C2.94549 7.33366 2.73353 7.42146 2.57725 7.57774C2.42097 7.73402 2.33317 7.94598 2.33317 8.16699V16.5003C2.33317 16.7213 2.42097 16.9333 2.57725 17.0896C2.73353 17.2459 2.94549 17.3337 3.1665 17.3337C3.38752 17.3337 3.59948 17.2459 3.75576 17.0896C3.91204 16.9333 3.99984 16.7213 3.99984 16.5003V8.16699C3.99984 7.94598 3.91204 7.73402 3.75576 7.57774C3.59948 7.42146 3.38752 7.33366 3.1665 7.33366ZM8.99984 14.0003C8.77882 14.0003 8.56686 14.0881 8.41058 14.2444C8.2543 14.4007 8.1665 14.6126 8.1665 14.8337V16.5003C8.1665 16.7213 8.2543 16.9333 8.41058 17.0896C8.56686 17.2459 8.77882 17.3337 8.99984 17.3337C9.22085 17.3337 9.43281 17.2459 9.58909 17.0896C9.74537 16.9333 9.83317 16.7213 9.83317 16.5003V14.8337C9.83317 14.6126 9.74537 14.4007 9.58909 14.2444C9.43281 14.0881 9.22085 14.0003 8.99984 14.0003ZM16.4998 7.33366H15.6665V1.50033C15.6665 1.27931 15.5787 1.06735 15.4224 0.91107C15.2661 0.75479 15.0542 0.666992 14.8332 0.666992C14.6122 0.666992 14.4002 0.75479 14.2439 0.91107C14.0876 1.06735 13.9998 1.27931 13.9998 1.50033V7.33366H13.1665C12.9455 7.33366 12.7335 7.42146 12.5772 7.57774C12.421 7.73402 12.3332 7.94598 12.3332 8.16699C12.3332 8.38801 12.421 8.59997 12.5772 8.75625C12.7335 8.91253 12.9455 9.00033 13.1665 9.00033H16.4998C16.7209 9.00033 16.9328 8.91253 17.0891 8.75625C17.2454 8.59997 17.3332 8.38801 17.3332 8.16699C17.3332 7.94598 17.2454 7.73402 17.0891 7.57774C16.9328 7.42146 16.7209 7.33366 16.4998 7.33366ZM14.8332 10.667C14.6122 10.667 14.4002 10.7548 14.2439 10.9111C14.0876 11.0674 13.9998 11.2793 13.9998 11.5003V16.5003C13.9998 16.7213 14.0876 16.9333 14.2439 17.0896C14.4002 17.2459 14.6122 17.3337 14.8332 17.3337C15.0542 17.3337 15.2661 17.2459 15.4224 17.0896C15.5787 16.9333 15.6665 16.7213 15.6665 16.5003V11.5003C15.6665 11.2793 15.5787 11.0674 15.4224 10.9111C15.2661 10.7548 15.0542 10.667 14.8332 10.667ZM10.6665 10.667H9.83317V1.50033C9.83317 1.27931 9.74537 1.06735 9.58909 0.91107C9.43281 0.75479 9.22085 0.666992 8.99984 0.666992C8.77882 0.666992 8.56686 0.75479 8.41058 0.91107C8.2543 1.06735 8.1665 1.27931 8.1665 1.50033V10.667H7.33317C7.11216 10.667 6.9002 10.7548 6.74392 10.9111C6.58764 11.0674 6.49984 11.2793 6.49984 11.5003C6.49984 11.7213 6.58764 11.9333 6.74392 12.0896C6.9002 12.2459 7.11216 12.3337 7.33317 12.3337H10.6665C10.8875 12.3337 11.0995 12.2459 11.2558 12.0896C11.412 11.9333 11.4998 11.7213 11.4998 11.5003C11.4998 11.2793 11.412 11.0674 11.2558 10.9111C11.0995 10.7548 10.8875 10.667 10.6665 10.667Z" fill="white"/>
</svg>
